-------------------------------------------------------------------------------
Test set: com.example.mybatis.springbootmybatis.SpringBootMybatisApplicationTests
-------------------------------------------------------------------------------
Tests run: 1, Failures: 0, Errors: 0, Skipped: 0, Time elapsed: 4.399 s - in com.example.mybatis.springbootmybatis.SpringBootMybatisApplicationTests
